{
  "data": [
    {
      "type": "profession",
      "id": "1",
      "attributes": {
        "title": "Test profession",
        "ssyk": 1,
        "insurance_status_id": 1
      },
      "links": {
        "self": "https://frilansfinans.se/api/profession/1"
      }
    }
  ],
  "meta": {
    "pagination": {
      "total": 11,
      "count": 1,
      "per_page": 1,
      "current_page": 1,
      "total_pages": 11,
      "links": {
        "next": "https://frilansfinans.se/api/professions?page=2"
      }
    }
  }
}
