{
  "data": [
    {
      "type": "professions",
      "id": "1",
      "attributes": {
        "title": "3D-designer",
        "language_id": 1,
        "ssyk": 3471,
        "insurance_status_id": 1
      },
      "links": {
        "self": "https://frilansfinans.se/api/profession/1"
      }
    },
    {
      "type": "professions",
      "id": "2",
      "attributes": {
        "title": "3D-grafiker",
        "language_id": 1,
        "ssyk": 3471,
        "insurance_status_id": 1
      },
      "links": {
        "self": "https://frilansfinans.se/api/profession/2"
      }
    },
    {
      "type": "professions",
      "id": "3",
      "attributes": {
        "title": "3D-visualiserare",
        "language_id": 1,
        "ssyk": 3471,
        "insurance_status_id": 1
      },
      "links": {
        "self": "https://frilansfinans.se/api/profession/3"
      }
    },
    {
      "type": "professions",
      "id": "4",
      "attributes": {
        "title": "Abonnemangsförsäljare",
        "language_id": 1,
        "ssyk": 5227,
        "insurance_status_id": 1
      },
      "links": {
        "self": "https://frilansfinans.se/api/profession/4"
      }
    },
    {
      "type": "professions",
      "id": "5",
      "attributes": {
        "title": "Abonnemangskontorist",
        "language_id": 1,
        "ssyk": 4190,
        "insurance_status_id": 1
      },
      "links": {
        "self": "https://frilansfinans.se/api/profession/5"
      }
    },
    {
      "type": "professions",
      "id": "6",
      "attributes": {
        "title": "Abonnentingenjör, vatten och avlopp",
        "language_id": 1,
        "ssyk": 3115,
        "insurance_status_id": 1
      },
      "links": {
        "self": "https://frilansfinans.se/api/profession/6"
      }
    },
    {
      "type": "professions",
      "id": "7",
      "attributes": {
        "title": "Abonnentman",
        "language_id": 1,
        "ssyk": 4190,
        "insurance_status_id": 1
      },
      "links": {
        "self": "https://frilansfinans.se/api/profession/7"
      }
    },
    {
      "type": "professions",
      "id": "8",
      "attributes": {
        "title": "Account manager",
        "language_id": 1,
        "ssyk": 3415,
        "insurance_status_id": 1
      },
      "links": {
        "self": "https://frilansfinans.se/api/profession/8"
      }
    },
    {
      "type": "professions",
      "id": "9",
      "attributes": {
        "title": "Accounting controller",
        "language_id": 1,
        "ssyk": 2411,
        "insurance_status_id": 2
      },
      "links": {
        "self": "https://frilansfinans.se/api/profession/9"
      }
    },
    {
      "type": "professions",
      "id": "10",
      "attributes": {
        "title": "Ackompanjatör, klassisk musik",
        "language_id": 1,
        "ssyk": 2453,
        "insurance_status_id": 3
      },
      "links": {
        "self": "https://frilansfinans.se/api/profession/10"
      }
    }
  ],
  "meta": {
    "pagination": {
      "total": 1066,
      "count": 10,
      "per_page": 10,
      "current_page": 1,
      "total_pages": 331,
      "links": {
        "next": "https://frilansfinans.se/api/professions?page=2"
      }
    }
  }
}
